<?xml version="1.0" encoding="utf-8"?>
<!-- Generator: Adobe Illustrator 25.0.0, SVG Export Plug-In . SVG Version: 6.00 Build 0)  -->
<svg version="1.1" id="Calque_1" xmlns="http://www.w3.org/2000/svg" xmlns:xlink="http://www.w3.org/1999/xlink" x="0px" y="0px"
	 viewBox="0 0 34 28" style="enable-background:new 0 0 34 28;" xml:space="preserve">
<style type="text/css">
	.st0{fill:#00A0DF;}
</style>
<g>
	<path class="st0" d="M18.7,10.3l-3.1,3.1l3.1,3.1c0,0,0.1,0.1,0.1,0.2s0,0.1-0.1,0.2l-0.4,0.4c0,0-0.1,0.1-0.2,0.1s-0.1,0-0.2-0.1
		l-3.6-3.6c0,0-0.1-0.1-0.1-0.2s0-0.1,0.1-0.2l3.6-3.6c0,0,0.1-0.1,0.2-0.1s0.1,0,0.2,0.1l0.4,0.4c0,0,0.1,0.1,0.1,0.2
		C18.8,10.2,18.7,10.3,18.7,10.3z"/>
</g>
</svg>
